\relax 
\providecommand\hyper@newdestlabel[2]{}
\providecommand\HyperFirstAtBeginDocument{\AtBeginDocument}
\HyperFirstAtBeginDocument{\ifx\hyper@anchor\@undefined
\global\let\oldcontentsline\contentsline
\gdef\contentsline#1#2#3#4{\oldcontentsline{#1}{#2}{#3}}
\global\let\oldnewlabel\newlabel
\gdef\newlabel#1#2{\newlabelxx{#1}#2}
\gdef\newlabelxx#1#2#3#4#5#6{\oldnewlabel{#1}{{#2}{#3}}}
\AtEndDocument{\ifx\hyper@anchor\@undefined
\let\contentsline\oldcontentsline
\let\newlabel\oldnewlabel
\fi}
\fi}
\global\let\hyper@last\relax 
\gdef\HyperFirstAtBeginDocument#1{#1}
\providecommand\HyField@AuxAddToFields[1]{}
\providecommand\HyField@AuxAddToCoFields[2]{}
\babel@aux{italian}{}
\babel@aux{italian}{}
\@writefile{toc}{\contentsline {section}{\numberline {0.1}Introduzione}{2}{section.0.1}\protected@file@percent }
\@writefile{toc}{\contentsline {section}{\numberline {0.2}Prerequisiti}{3}{section.0.2}\protected@file@percent }
\@writefile{lof}{\contentsline {figure}{\numberline {1}{\ignorespaces Ambiente di default}}{4}{figure.0.1}\protected@file@percent }
\@writefile{toc}{\contentsline {chapter}{\numberline {1}Checklist}{5}{chapter.1}\protected@file@percent }
\@writefile{lof}{\addvspace {10\p@ }}
\@writefile{lot}{\addvspace {10\p@ }}
\@writefile{toc}{\contentsline {chapter}{\numberline {2}Panoramica di installazione}{7}{chapter.2}\protected@file@percent }
\@writefile{lof}{\addvspace {10\p@ }}
\@writefile{lot}{\addvspace {10\p@ }}
\@writefile{toc}{\contentsline {section}{\numberline {2.1}Import del server virtuale FOG in ProxMox}{7}{section.2.1}\protected@file@percent }
\@writefile{toc}{\contentsline {subsection}{\numberline {2.1.1}Scaricare l'immagine del server virtuale FOG}{7}{subsection.2.1.1}\protected@file@percent }
\@writefile{toc}{\contentsline {subsection}{\numberline {2.1.2}Importare l'immagine del server virtuale FOG in ProxMox}{7}{subsection.2.1.2}\protected@file@percent }
\@writefile{lof}{\contentsline {figure}{\numberline {2.1}{\ignorespaces pve-data sar\IeC {\`a} lo storage di destinazione}}{8}{figure.2.1}\protected@file@percent }
\@writefile{toc}{\contentsline {subsection}{\numberline {2.1.3}OPZIONALE: Aggiungere tag VLAN}{8}{subsection.2.1.3}\protected@file@percent }
\@writefile{toc}{\contentsline {subsection}{\numberline {2.1.4}Avviare il server virtuale FOG}{8}{subsection.2.1.4}\protected@file@percent }
\@writefile{toc}{\contentsline {section}{\numberline {2.2}Configurazione server FOG}{9}{section.2.2}\protected@file@percent }
\@writefile{toc}{\contentsline {section}{\numberline {2.3}Fasi dell'installazione}{9}{section.2.3}\protected@file@percent }
\@writefile{toc}{\contentsline {subsection}{\numberline {2.3.1}FOG\_setup.sh}{9}{subsection.2.3.1}\protected@file@percent }
\@writefile{toc}{\contentsline {subsection}{\numberline {2.3.2}setup.sh}{10}{subsection.2.3.2}\protected@file@percent }
\@writefile{lof}{\contentsline {figure}{\numberline {2.2}{\ignorespaces ACL squid per accesso a GitLab e rete snets.it}}{10}{figure.2.2}\protected@file@percent }
\@writefile{lof}{\contentsline {figure}{\numberline {2.3}{\ignorespaces Permettere l'accesso ad internet al server FOG}}{11}{figure.2.3}\protected@file@percent }
\@writefile{toc}{\contentsline {subsection}{\numberline {2.3.3}install.sh}{12}{subsection.2.3.3}\protected@file@percent }
\@writefile{toc}{\contentsline {subsubsection}{editFussServer.sh}{13}{section*.2}\protected@file@percent }
\@writefile{toc}{\contentsline {subsubsection}{Personalizzazioni}{14}{section*.3}\protected@file@percent }
\@writefile{lof}{\contentsline {figure}{\numberline {2.4}{\ignorespaces Ambiente PXE con sfondo personalizzato}}{14}{figure.2.4}\protected@file@percent }
\@writefile{toc}{\contentsline {subsection}{\numberline {2.3.4}Accedere a FOG}{15}{subsection.2.3.4}\protected@file@percent }
\@writefile{lof}{\contentsline {figure}{\numberline {2.5}{\ignorespaces Accedere all'interfaccia di gestione di FOG}}{15}{figure.2.5}\protected@file@percent }
\@writefile{toc}{\contentsline {chapter}{\numberline {3}Installazione guidata con screenshot}{16}{chapter.3}\protected@file@percent }
\@writefile{lof}{\addvspace {10\p@ }}
\@writefile{lot}{\addvspace {10\p@ }}
\@writefile{toc}{\contentsline {section}{\numberline {3.1}OPZIONALE: Impostare TAG e Queue vLAN}{17}{section.3.1}\protected@file@percent }
\@writefile{lof}{\contentsline {figure}{\numberline {3.1}{\ignorespaces Impostare TAG e/o Queue vLAN se previsto dal nostro ambiente ProxMox}}{17}{figure.3.1}\protected@file@percent }
\@writefile{toc}{\contentsline {section}{\numberline {3.2}Tasto destro sul server FOG importato e selezionare \texttt  {Start}}{18}{section.3.2}\protected@file@percent }
\@writefile{lof}{\contentsline {figure}{\numberline {3.2}{\ignorespaces Avviare con start}}{18}{figure.3.2}\protected@file@percent }
\@writefile{toc}{\contentsline {section}{\numberline {3.3}Configurazione server con FOG\_setup.sh}{18}{section.3.3}\protected@file@percent }
\@writefile{lof}{\contentsline {figure}{\numberline {3.3}{\ignorespaces Dopo aver fatto il login con root:fuss avviare l'installazione con un doppioclick su FOG\_setup.sh}}{18}{figure.3.3}\protected@file@percent }
\@writefile{toc}{\contentsline {subsection}{\numberline {3.3.1}Setup 1/3 Rete}{19}{subsection.3.3.1}\protected@file@percent }
\@writefile{lof}{\contentsline {figure}{\numberline {3.4}{\ignorespaces Inserito indirizzo IP 10.199.199.12, netmask 255.255.255.0 e indirizzo server FUSS 10.199.199.11}}{19}{figure.3.4}\protected@file@percent }
\@writefile{toc}{\contentsline {subsection}{\numberline {3.3.2}Setup 2/3 Hostname}{20}{subsection.3.3.2}\protected@file@percent }
\@writefile{lof}{\contentsline {figure}{\numberline {3.5}{\ignorespaces Inserito 251105vs02}}{20}{figure.3.5}\protected@file@percent }
\@writefile{toc}{\contentsline {subsection}{\numberline {3.3.3}Setup 3/3 Nome scuola}{21}{subsection.3.3.3}\protected@file@percent }
\@writefile{lof}{\contentsline {figure}{\numberline {3.6}{\ignorespaces Inserito Scuola di test}}{21}{figure.3.6}\protected@file@percent }
\@writefile{toc}{\contentsline {subsection}{\numberline {3.3.4}Premere un tasto per continuare}{22}{subsection.3.3.4}\protected@file@percent }
\@writefile{lof}{\contentsline {figure}{\numberline {3.7}{\ignorespaces Premere un tasto, sar\IeC {\`a} richiesta la password di root del server FUSS}}{22}{figure.3.7}\protected@file@percent }
\@writefile{toc}{\contentsline {subsection}{\numberline {3.3.5}Password root FUSS}{23}{subsection.3.3.5}\protected@file@percent }
\@writefile{lof}{\contentsline {figure}{\numberline {3.8}{\ignorespaces Accettare il certificato ed inserire la password di root FUSS}}{23}{figure.3.8}\protected@file@percent }
\@writefile{toc}{\contentsline {subsection}{\numberline {3.3.6}Connessione FTP al server: username}{24}{subsection.3.3.6}\protected@file@percent }
\@writefile{lof}{\contentsline {figure}{\numberline {3.9}{\ignorespaces Richiesta username per collegarsi al server ftp.snets.it e scaricare le chiavi SSH}}{24}{figure.3.9}\protected@file@percent }
\@writefile{toc}{\contentsline {subsection}{\numberline {3.3.7}Connessione FTP al server: password}{25}{subsection.3.3.7}\protected@file@percent }
\@writefile{lof}{\contentsline {figure}{\numberline {3.10}{\ignorespaces Richiesta password per collegarsi al server ftp.snets.it e scaricare le chiavi SSH}}{25}{figure.3.10}\protected@file@percent }
\@writefile{toc}{\contentsline {subsection}{\numberline {3.3.8}Attivazione chiavi SSH}{26}{subsection.3.3.8}\protected@file@percent }
\@writefile{lof}{\contentsline {figure}{\numberline {3.11}{\ignorespaces Premere un tasto per continuare}}{26}{figure.3.11}\protected@file@percent }
\@writefile{toc}{\contentsline {subsection}{\numberline {3.3.9}Attivazione chiavi SSH}{27}{subsection.3.3.9}\protected@file@percent }
\@writefile{lof}{\contentsline {figure}{\numberline {3.12}{\ignorespaces Inserire la password root del server FUSS per attivare le chiavi SSH scaricate}}{27}{figure.3.12}\protected@file@percent }
\@writefile{toc}{\contentsline {subsection}{\numberline {3.3.10}Inizio configurazione FOG}{28}{subsection.3.3.10}\protected@file@percent }
\@writefile{lof}{\contentsline {figure}{\numberline {3.13}{\ignorespaces Modifica dei parametri FOG}}{28}{figure.3.13}\protected@file@percent }
\@writefile{toc}{\contentsline {subsection}{\numberline {3.3.11}Aggiornamento FOG}{29}{subsection.3.3.11}\protected@file@percent }
\@writefile{lof}{\contentsline {figure}{\numberline {3.14}{\ignorespaces Installazione FOG}}{29}{figure.3.14}\protected@file@percent }
\@writefile{toc}{\contentsline {subsection}{\numberline {3.3.12}Modifiche al server FUSS}{30}{subsection.3.3.12}\protected@file@percent }
\@writefile{lof}{\contentsline {figure}{\numberline {3.15}{\ignorespaces L'installazione termina la configurazione FUSS}}{30}{figure.3.15}\protected@file@percent }
\@writefile{toc}{\contentsline {subsection}{\numberline {3.3.13}Installazione terminata}{31}{subsection.3.3.13}\protected@file@percent }
\@writefile{lof}{\contentsline {figure}{\numberline {3.16}{\ignorespaces L'installazione \IeC {\`e} completata, tra 120 secondi i PC client potranno effettuare il boot da PXE FOG}}{31}{figure.3.16}\protected@file@percent }
\@writefile{toc}{\contentsline {chapter}{\numberline {4}Security Hardening}{32}{chapter.4}\protected@file@percent }
\@writefile{lof}{\addvspace {10\p@ }}
\@writefile{lot}{\addvspace {10\p@ }}
\@writefile{toc}{\contentsline {section}{\numberline {4.1}Hardening server FOG}{32}{section.4.1}\protected@file@percent }
\@writefile{toc}{\contentsline {section}{\numberline {4.2}Hardening FOG}{32}{section.4.2}\protected@file@percent }
\@writefile{toc}{\contentsline {subsection}{\numberline {4.2.1}MySQL}{32}{subsection.4.2.1}\protected@file@percent }
\@writefile{toc}{\contentsline {subsection}{\numberline {4.2.2}Proteggere le immagini}{33}{subsection.4.2.2}\protected@file@percent }
\@writefile{toc}{\contentsline {chapter}{\numberline {5}Configurazioni iniziali}{34}{chapter.5}\protected@file@percent }
\@writefile{lof}{\addvspace {10\p@ }}
\@writefile{lot}{\addvspace {10\p@ }}
\@writefile{toc}{\contentsline {section}{\numberline {5.1}Cluster FUSS/Gruppi FOG}{34}{section.5.1}\protected@file@percent }
\@writefile{toc}{\contentsline {subsection}{\numberline {5.1.1}Aggiungere Cluster FUSS/Gruppi in FOG}{34}{subsection.5.1.1}\protected@file@percent }
\@writefile{toc}{\contentsline {subsection}{\numberline {5.1.2}Lista gruppi vuota}{35}{subsection.5.1.2}\protected@file@percent }
\@writefile{lof}{\contentsline {figure}{\numberline {5.1}{\ignorespaces Cliccare in alto sul simbolo Groups, e sulla sinistra su \texttt  {Create New Group}}}{35}{figure.5.1}\protected@file@percent }
\@writefile{toc}{\contentsline {subsection}{\numberline {5.1.3}Compilare i campi necessari}{35}{subsection.5.1.3}\protected@file@percent }
\@writefile{lof}{\contentsline {figure}{\numberline {5.2}{\ignorespaces Inserito Group Name ed una descrizione, infine premere Add}}{36}{figure.5.2}\protected@file@percent }
\@writefile{toc}{\contentsline {section}{\numberline {5.2}Registrare i client in FOG}{36}{section.5.2}\protected@file@percent }
\@writefile{toc}{\contentsline {subsection}{\numberline {5.2.1}Imposazioni BIOS pc client}{36}{subsection.5.2.1}\protected@file@percent }
\@writefile{lof}{\contentsline {figure}{\numberline {5.3}{\ignorespaces Avviamento ordine: Controller di rete in prima posizione}}{37}{figure.5.3}\protected@file@percent }
\@writefile{lof}{\contentsline {figure}{\numberline {5.4}{\ignorespaces Abilitare l'avvio da rete}}{37}{figure.5.4}\protected@file@percent }
\@writefile{lof}{\contentsline {figure}{\numberline {5.5}{\ignorespaces Sorgente in caso di wakeup remoto}}{38}{figure.5.5}\protected@file@percent }
\@writefile{lof}{\contentsline {figure}{\numberline {5.6}{\ignorespaces Sorgente in caso di wakeup remoto}}{38}{figure.5.6}\protected@file@percent }
\@writefile{toc}{\contentsline {subsection}{\numberline {5.2.2}Registrazione manuale}{38}{subsection.5.2.2}\protected@file@percent }
\@writefile{lof}{\contentsline {figure}{\numberline {5.7}{\ignorespaces Selezionare \texttt  {Registrazione ed Inventario (completo)}}}{39}{figure.5.7}\protected@file@percent }
\@writefile{lof}{\contentsline {figure}{\numberline {5.8}{\ignorespaces Inserire il \texttt  {HOSTNAME} del PC in questione}}{40}{figure.5.8}\protected@file@percent }
\@writefile{lof}{\contentsline {figure}{\numberline {5.9}{\ignorespaces \IeC {\`E} richiesto ora quale immagine associare a questo PC. Con \texttt  {?} \IeC {\`e} possibile mostrare la lista delle immagini disponibili. Inserendo il numero corrispondente all'ID e.g. \texttt  {1} si associa l'immagine desiderata.}}{41}{figure.5.9}\protected@file@percent }
\@writefile{lof}{\contentsline {figure}{\numberline {5.10}{\ignorespaces \IeC {\`E} richiesto ora quale location associare a questo PC. Con \texttt  {?} \IeC {\`e} possibile mostrare la lista delle location disponibili. Inserendo il numero corrispondente all'ID e.g. \texttt  {1} si associa la location desiderata.}}{42}{figure.5.10}\protected@file@percent }
\@writefile{lof}{\contentsline {figure}{\numberline {5.11}{\ignorespaces \IeC {\`E} richiesto ora quale \texttt  {gruppo FOG/cluster FUSS} associare a questo PC. Con \texttt  {?} \IeC {\`e} possibile mostrare la lista dei \texttt  {gruppo FOG/cluster FUSS} disponibili. Inserendo il numero corrispondente all'ID e.g. \texttt  {1} si associa il \texttt  {gruppo FOG/cluster FUSS} desiderato.}}{43}{figure.5.11}\protected@file@percent }
\@writefile{lof}{\contentsline {figure}{\numberline {5.12}{\ignorespaces Inserire i parametri opzioniali e alla fine decidere se iniziare con l'installazione automatizzata del PC o meno, con \texttt  {n} il deploy \texttt  {NON} sar\IeC {\`a} avviato}}{44}{figure.5.12}\protected@file@percent }
\@writefile{toc}{\contentsline {subsection}{\numberline {5.2.3}Registrazione tramite import}{44}{subsection.5.2.3}\protected@file@percent }
\@writefile{toc}{\contentsline {section}{\numberline {5.3}Installazione dei client FUSS}{45}{section.5.3}\protected@file@percent }
\@writefile{lof}{\contentsline {figure}{\numberline {5.13}{\ignorespaces Cliccare sulla freccia verde del singolo client per avviare il deploy}}{45}{figure.5.13}\protected@file@percent }
\@writefile{lof}{\contentsline {figure}{\numberline {5.14}{\ignorespaces Cliccare sulla freccia verde de lgruppo per avviare il deploy per tutto il \texttt  {gruppo FOG/cluster FUSS}}}{46}{figure.5.14}\protected@file@percent }
\@writefile{lof}{\contentsline {figure}{\numberline {5.15}{\ignorespaces Cliccare sulla freccia verde del singolo client per avviare il deploy}}{47}{figure.5.15}\protected@file@percent }
\@writefile{lof}{\contentsline {figure}{\numberline {5.16}{\ignorespaces Nella lista de gli \texttt  {Active tasks}, sar\IeC {\`a} possibile seguire l'andamento dell'installazione}}{48}{figure.5.16}\protected@file@percent }
\@writefile{toc}{\contentsline {chapter}{\numberline {6}Tips and Tricks}{49}{chapter.6}\protected@file@percent }
\@writefile{lof}{\addvspace {10\p@ }}
\@writefile{lot}{\addvspace {10\p@ }}
\@writefile{toc}{\contentsline {section}{\numberline {6.1}Kernel per HP dc5800 e 7900p}{49}{section.6.1}\protected@file@percent }
\@writefile{lof}{\contentsline {figure}{\numberline {6.1}{\ignorespaces Parametri personalizzati di Kernel, Kernel Arguments ed Init}}{49}{figure.6.1}\protected@file@percent }
\@writefile{toc}{\contentsline {chapter}{\numberline {7}Feedback e Supporto}{50}{chapter.7}\protected@file@percent }
\@writefile{lof}{\addvspace {10\p@ }}
\@writefile{lot}{\addvspace {10\p@ }}
