\BOOKMARK [1][-]{section.0.1}{Introduzione}{}% 1
\BOOKMARK [1][-]{section.0.2}{Prerequisiti}{}% 2
\BOOKMARK [0][-]{chapter.1}{Checklist}{}% 3
\BOOKMARK [0][-]{chapter.2}{Panoramica di installazione}{}% 4
\BOOKMARK [1][-]{section.2.1}{Import del server virtuale FOG in ProxMox}{chapter.2}% 5
\BOOKMARK [2][-]{subsection.2.1.1}{Scaricare l'immagine del server virtuale FOG}{section.2.1}% 6
\BOOKMARK [2][-]{subsection.2.1.2}{Importare l'immagine del server virtuale FOG in ProxMox}{section.2.1}% 7
\BOOKMARK [2][-]{subsection.2.1.3}{OPZIONALE: Aggiungere tag VLAN}{section.2.1}% 8
\BOOKMARK [2][-]{subsection.2.1.4}{Avviare il server virtuale FOG}{section.2.1}% 9
\BOOKMARK [1][-]{section.2.2}{Configurazione server FOG}{chapter.2}% 10
\BOOKMARK [1][-]{section.2.3}{Fasi dell'installazione}{chapter.2}% 11
\BOOKMARK [2][-]{subsection.2.3.1}{FOG\137setup.sh}{section.2.3}% 12
\BOOKMARK [2][-]{subsection.2.3.2}{setup.sh}{section.2.3}% 13
\BOOKMARK [2][-]{subsection.2.3.3}{install.sh}{section.2.3}% 14
\BOOKMARK [2][-]{subsection.2.3.4}{Accedere a FOG}{section.2.3}% 15
\BOOKMARK [0][-]{chapter.3}{Installazione guidata con screenshot}{}% 16
\BOOKMARK [1][-]{section.3.1}{OPZIONALE: Impostare TAG e Queue vLAN}{chapter.3}% 17
\BOOKMARK [1][-]{section.3.2}{Tasto destro sul server FOG importato e selezionare Start}{chapter.3}% 18
\BOOKMARK [1][-]{section.3.3}{Configurazione server con FOG\137setup.sh}{chapter.3}% 19
\BOOKMARK [2][-]{subsection.3.3.1}{Setup 1/3 Rete}{section.3.3}% 20
\BOOKMARK [2][-]{subsection.3.3.2}{Setup 2/3 Hostname}{section.3.3}% 21
\BOOKMARK [2][-]{subsection.3.3.3}{Setup 3/3 Nome scuola}{section.3.3}% 22
\BOOKMARK [2][-]{subsection.3.3.4}{Premere un tasto per continuare}{section.3.3}% 23
\BOOKMARK [2][-]{subsection.3.3.5}{Password root FUSS}{section.3.3}% 24
\BOOKMARK [2][-]{subsection.3.3.6}{Connessione FTP al server: username}{section.3.3}% 25
\BOOKMARK [2][-]{subsection.3.3.7}{Connessione FTP al server: password}{section.3.3}% 26
\BOOKMARK [2][-]{subsection.3.3.8}{Attivazione chiavi SSH}{section.3.3}% 27
\BOOKMARK [2][-]{subsection.3.3.9}{Attivazione chiavi SSH}{section.3.3}% 28
\BOOKMARK [2][-]{subsection.3.3.10}{Inizio configurazione FOG}{section.3.3}% 29
\BOOKMARK [2][-]{subsection.3.3.11}{Aggiornamento FOG}{section.3.3}% 30
\BOOKMARK [2][-]{subsection.3.3.12}{Modifiche al server FUSS}{section.3.3}% 31
\BOOKMARK [2][-]{subsection.3.3.13}{Installazione terminata}{section.3.3}% 32
\BOOKMARK [0][-]{chapter.4}{Security Hardening}{}% 33
\BOOKMARK [1][-]{section.4.1}{Hardening server FOG}{chapter.4}% 34
\BOOKMARK [1][-]{section.4.2}{Hardening FOG}{chapter.4}% 35
\BOOKMARK [2][-]{subsection.4.2.1}{MySQL}{section.4.2}% 36
\BOOKMARK [2][-]{subsection.4.2.2}{Proteggere le immagini}{section.4.2}% 37
\BOOKMARK [0][-]{chapter.5}{Configurazioni iniziali}{}% 38
\BOOKMARK [1][-]{section.5.1}{Cluster FUSS/Gruppi FOG}{chapter.5}% 39
\BOOKMARK [2][-]{subsection.5.1.1}{Aggiungere Cluster FUSS/Gruppi in FOG}{section.5.1}% 40
\BOOKMARK [2][-]{subsection.5.1.2}{Lista gruppi vuota}{section.5.1}% 41
\BOOKMARK [2][-]{subsection.5.1.3}{Compilare i campi necessari}{section.5.1}% 42
\BOOKMARK [1][-]{section.5.2}{Registrare i client in FOG}{chapter.5}% 43
\BOOKMARK [2][-]{subsection.5.2.1}{Imposazioni BIOS pc client}{section.5.2}% 44
\BOOKMARK [2][-]{subsection.5.2.2}{Registrazione manuale}{section.5.2}% 45
\BOOKMARK [2][-]{subsection.5.2.3}{Registrazione tramite import}{section.5.2}% 46
\BOOKMARK [1][-]{section.5.3}{Installazione dei client FUSS}{chapter.5}% 47
\BOOKMARK [0][-]{chapter.6}{Tips and Tricks}{}% 48
\BOOKMARK [1][-]{section.6.1}{Kernel per HP dc5800 e 7900p}{chapter.6}% 49
\BOOKMARK [0][-]{chapter.7}{Feedback e Supporto}{}% 50
